simulation/qsim/lab6part2.msim.vcd
$comment
	File created using the following command:
		vcd file lab6part2.msim.vcd -direction
$end
$date
	Sun Nov 26 23:49:57 2023
$end
$version
	ModelSim Version 10.1d
$end
$timescale
	1ps
$end
$scope module ALU2Schematic_vlg_vec_tst $end
$var reg 8 ! A [7:0] $end
$var reg 8 " B [7:0] $end
$var reg 1 # Clock $end
$var reg 1 $ data_in $end
$var reg 1 % En $end
$var reg 1 & reset $end
$var reg 1 ' reset_Latch $end
$var wire 1 ( R1 [0] $end
$var wire 1 ) R1 [1] $end
$var wire 1 * R1 [2] $end
$var wire 1 + R1 [3] $end
$var wire 1 , R1 [4] $end
$var wire 1 - R1 [5] $end
$var wire 1 . R1 [6] $end
$var wire 1 / R1R1 [3] $end
$var wire 1 0 R1R1 [2] $end
$var wire 1 1 R1R1 [1] $end
$var wire 1 2 R1R1 [0] $end
$var wire 1 3 R2 [0] $end
$var wire 1 4 R2 [1] $end
$var wire 1 5 R2 [2] $end
$var wire 1 6 R2 [3] $end
$var wire 1 7 R2 [4] $end
$var wire 1 8 R2 [5] $end
$var wire 1 9 R2 [6] $end
$var wire 1 : R2R2 [3] $end
$var wire 1 ; R2R2 [2] $end
$var wire 1 < R2R2 [1] $end
$var wire 1 = R2R2 [0] $end
$var wire 1 > sID [0] $end
$var wire 1 ? sID [1] $end
$var wire 1 @ sID [2] $end
$var wire 1 A sID [3] $end
$var wire 1 B sID [4] $end
$var wire 1 C sID [5] $end
$var wire 1 D sID [6] $end
$var wire 1 E SIGN_R1 [0] $end
$var wire 1 F SIGN_R1 [1] $end
$var wire 1 G SIGN_R1 [2] $end
$var wire 1 H SIGN_R1 [3] $end
$var wire 1 I SIGN_R1 [4] $end
$var wire 1 J SIGN_R1 [5] $end
$var wire 1 K SIGN_R1 [6] $end
$var wire 1 L sampler $end
$scope module i1 $end
$var wire 1 M gnd $end
$var wire 1 N vcc $end
$var wire 1 O unknown $end
$var tri1 1 P devclrn $end
$var tri1 1 Q devpor $end
$var tri1 1 R devoe $end
$var wire 1 S inst7|Add3~6_combout $end
$var wire 1 T inst7|Add0~8_combout $end
$var wire 1 U inst7|Add0~13 $end
$var wire 1 V inst7|Add3~12_combout $end
$var wire 1 W inst7|Add0~14_combout $end
$var wire 1 X inst7|Selector7~0_combout $end
$var wire 1 Y inst7|Selector7~1_combout $end
$var wire 1 Z inst7|Result~7_combout $end
$var wire 1 [ inst7|Selector6~7_combout $end
$var wire 1 \ inst7|Selector4~7_combout $end
$var wire 1 ] inst7|Selector2~0_combout $end
$var wire 1 ^ inst7|Selector2~1_combout $end
$var wire 1 _ inst7|Result~11_combout $end
$var wire 1 ` inst7|Result~12_combout $end
$var wire 1 a reset~combout $end
$var wire 1 b reset~clkctrl_outclk $end
$var wire 1 c data_in~combout $end
$var wire 1 d inst2|yfsm.s8~regout $end
$var wire 1 e inst2|yfsm.s0~0_combout $end
$var wire 1 f inst2|yfsm.s0~regout $end
$var wire 1 g inst2|yfsm.s1~0_combout $end
$var wire 1 h inst2|yfsm.s1~regout $end
$var wire 1 i inst2|yfsm.s2~regout $end
$var wire 1 j inst2|yfsm.s3~regout $end
$var wire 1 k inst2|yfsm.s4~regout $end
$var wire 1 l inst2|yfsm.s5~regout $end
$var wire 1 m inst2|yfsm.s6~regout $end
$var wire 1 n inst2|yfsm.s7~regout $end
$var wire 1 o inst7|Result[3]~2_combout $end
$var wire 1 p reset_Latch~combout $end
$var wire 1 q reset_Latch~clkctrl_outclk $end
$var wire 1 r inst7|LessThan0~1_cout $end
$var wire 1 s inst7|LessThan0~3_cout $end
$var wire 1 t inst7|LessThan0~5_cout $end
$var wire 1 u inst7|LessThan0~7_cout $end
$var wire 1 v inst7|LessThan0~9_cout $end
$var wire 1 w inst7|LessThan0~11_cout $end
$var wire 1 x inst7|LessThan0~13_cout $end
$var wire 1 y inst7|LessThan0~14_combout $end
$var wire 1 z inst7|Result[3]~3_combout $end
$var wire 1 { inst7|Add3~1 $end
$var wire 1 | inst7|Add3~2_combout $end
$var wire 1 } inst7|Result[3]~0_combout $end
$var wire 1 ~ inst7|Selector6~4_combout $end
$var wire 1 !! inst7|Selector6~5_combout $end
$var wire 1 "! inst7|Selector6~12_combout $end
$var wire 1 #! inst7|Result[3]~6_combout $end
$var wire 1 $! inst7|Result[3]~5_combout $end
$var wire 1 %! inst3|Mux15~0_combout $end
$var wire 1 &! inst2|WideOr13~0_combout $end
$var wire 1 '! inst3|Mux15~1_combout $end
$var wire 1 (! inst7|Selector6~11_combout $end
$var wire 1 )! inst7|Add0~1 $end
$var wire 1 *! inst7|Add0~2_combout $end
$var wire 1 +! inst7|Selector6~6_combout $end
$var wire 1 ,! inst7|Selector6~8_combout $end
$var wire 1 -! inst7|Selector6~9_combout $end
$var wire 1 .! inst7|Selector6~10_combout $end
$var wire 1 /! inst7|Result~1_combout $end
$var wire 1 0! inst7|Add3~0_combout $end
$var wire 1 1! inst7|Add0~0_combout $end
$var wire 1 2! inst7|Result[3]~4_combout $end
$var wire 1 3! inst7|Selector7~2_combout $end
$var wire 1 4! inst7|Selector7~3_combout $end
$var wire 1 5! inst7|Selector7~4_combout $end
$var wire 1 6! inst7|Selector7~5_combout $end
$var wire 1 7! inst7|Add0~3 $end
$var wire 1 8! inst7|Add0~5 $end
$var wire 1 9! inst7|Add0~6_combout $end
$var wire 1 :! inst7|Selector4~4_combout $end
$var wire 1 ;! inst7|Selector4~11_combout $end
$var wire 1 <! inst7|Selector4~5_combout $end
$var wire 1 =! inst7|Selector4~8_combout $end
$var wire 1 >! inst7|Selector4~9_combout $end
$var wire 1 ?! inst7|Selector4~6_combout $end
$var wire 1 @! inst7|Selector4~12_combout $end
$var wire 1 A! inst7|Selector4~10_combout $end
$var wire 1 B! inst7|Result~8_combout $end
$var wire 1 C! inst7|Add3~3 $end
$var wire 1 D! inst7|Add3~4_combout $end
$var wire 1 E! inst7|Add0~4_combout $end
$var wire 1 F! inst7|Selector5~0_combout $end
$var wire 1 G! inst7|Selector5~1_combout $end
$var wire 1 H! inst7|Selector5~2_combout $end
$var wire 1 I! inst7|Selector5~3_combout $end
$var wire 1 J! inst7|Selector5~4_combout $end
$var wire 1 K! inst7|Selector5~5_combout $end
$var wire 1 L! inst6|Mux0~0_combout $end
$var wire 1 M! inst6|Mux1~0_combout $end
$var wire 1 N! inst6|Mux2~0_combout $end
$var wire 1 O! inst6|Mux3~0_combout $end
$var wire 1 P! inst6|Mux4~0_combout $end
$var wire 1 Q! inst6|Mux5~0_combout $end
$var wire 1 R! inst6|Mux6~0_combout $end
$var wire 1 S! inst7|Add3~5 $end
$var wire 1 T! inst7|Add3~7 $end
$var wire 1 U! inst7|Add3~9 $end
$var wire 1 V! inst7|Add3~11 $end
$var wire 1 W! inst7|Add3~13 $end
$var wire 1 X! inst7|Add3~14_combout $end
$var wire 1 Y! inst7|Selector0~0_combout $end
$var wire 1 Z! inst7|Selector0~1_combout $end
$var wire 1 [! inst7|Selector0~2_combout $end
$var wire 1 \! inst7|Selector0~3_combout $end
$var wire 1 ]! inst7|Selector0~4_combout $end
$var wire 1 ^! inst7|Selector0~5_combout $end
$var wire 1 _! inst7|Result~9_combout $end
$var wire 1 `! inst7|Add3~8_combout $end
$var wire 1 a! inst7|Selector3~0_combout $end
$var wire 1 b! inst7|Selector3~1_combout $end
$var wire 1 c! inst7|Selector3~2_combout $end
$var wire 1 d! inst7|Selector3~3_combout $end
$var wire 1 e! inst7|Selector3~4_combout $end
$var wire 1 f! inst7|Selector3~5_combout $end
$var wire 1 g! inst7|Result~10_combout $end
$var wire 1 h! inst7|Add3~10_combout $end
$var wire 1 i! inst7|Add0~7 $end
$var wire 1 j! inst7|Add0~9 $end
$var wire 1 k! inst7|Add0~10_combout $end
$var wire 1 l! inst7|Selector2~2_combout $end
$var wire 1 m! inst7|Selector2~3_combout $end
$var wire 1 n! inst7|Selector2~4_combout $end
$var wire 1 o! inst7|Selector2~5_combout $end
$var wire 1 p! inst7|Selector1~0_combout $end
$var wire 1 q! inst7|Selector1~1_combout $end
$var wire 1 r! inst7|Add0~11 $end
$var wire 1 s! inst7|Add0~12_combout $end
$var wire 1 t! inst7|Selector1~2_combout $end
$var wire 1 u! inst7|Selector1~3_combout $end
$var wire 1 v! inst7|Selector1~4_combout $end
$var wire 1 w! inst7|Selector1~5_combout $end
$var wire 1 x! inst15|Mux0~0_combout $end
$var wire 1 y! inst15|Mux1~0_combout $end
$var wire 1 z! inst15|Mux2~0_combout $end
$var wire 1 {! inst15|Mux3~0_combout $end
$var wire 1 |! inst15|Mux4~0_combout $end
$var wire 1 }! inst15|Mux5~0_combout $end
$var wire 1 ~! inst15|Mux6~0_combout $end
$var wire 1 !" inst2|WideOr10~0_combout $end
$var wire 1 "" inst2|WideOr11~0_combout $end
$var wire 1 #" inst2|WideOr9~combout $end
$var wire 1 $" inst4|Mux0~0_combout $end
$var wire 1 %" inst4|Mux1~0_combout $end
$var wire 1 &" inst4|Mux3~0_combout $end
$var wire 1 '" inst4|Mux4~0_combout $end
$var wire 1 (" inst4|Mux5~0_combout $end
$var wire 1 )" inst4|Mux6~0_combout $end
$var wire 1 *" Clock~combout $end
$var wire 1 +" Clock~clkctrl_outclk $end
$var wire 1 ," inst2|WideOr12~combout $end
$var wire 1 -" inst7|Neg~0_combout $end
$var wire 1 ." inst7|Neg~regout $end
$var wire 1 /" inst1|Q2 [7] $end
$var wire 1 0" inst1|Q2 [6] $end
$var wire 1 1" inst1|Q2 [5] $end
$var wire 1 2" inst1|Q2 [4] $end
$var wire 1 3" inst1|Q2 [3] $end
$var wire 1 4" inst1|Q2 [2] $end
$var wire 1 5" inst1|Q2 [1] $end
$var wire 1 6" inst1|Q2 [0] $end
$var wire 1 7" inst7|temp [7] $end
$var wire 1 8" inst7|temp [6] $end
$var wire 1 9" inst7|temp [5] $end
$var wire 1 :" inst7|temp [4] $end
$var wire 1 ;" inst7|temp [3] $end
$var wire 1 <" inst7|temp [2] $end
$var wire 1 =" inst7|temp [1] $end
$var wire 1 >" inst7|temp [0] $end
$var wire 1 ?" inst|Q1 [7] $end
$var wire 1 @" inst|Q1 [6] $end
$var wire 1 A" inst|Q1 [5] $end
$var wire 1 B" inst|Q1 [4] $end
$var wire 1 C" inst|Q1 [3] $end
$var wire 1 D" inst|Q1 [2] $end
$var wire 1 E" inst|Q1 [1] $end
$var wire 1 F" inst|Q1 [0] $end
$var wire 1 G" inst7|Result [7] $end
$var wire 1 H" inst7|Result [6] $end
$var wire 1 I" inst7|Result [5] $end
$var wire 1 J" inst7|Result [4] $end
$var wire 1 K" inst7|Result [3] $end
$var wire 1 L" inst7|Result [2] $end
$var wire 1 M" inst7|Result [1] $end
$var wire 1 N" inst7|Result [0] $end
$var wire 1 O" B~combout [7] $end
$var wire 1 P" B~combout [6] $end
$var wire 1 Q" B~combout [5] $end
$var wire 1 R" B~combout [4] $end
$var wire 1 S" B~combout [3] $end
$var wire 1 T" B~combout [2] $end
$var wire 1 U" B~combout [1] $end
$var wire 1 V" B~combout [0] $end
$var wire 1 W" A~combout [7] $end
$var wire 1 X" A~combout [6] $end
$var wire 1 Y" A~combout [5] $end
$var wire 1 Z" A~combout [4] $end
$var wire 1 [" A~combout [3] $end
$var wire 1 \" A~combout [2] $end
$var wire 1 ]" A~combout [1] $end
$var wire 1 ^" A~combout [0] $end
$upscope $end
$upscope $end
$enddefinitions $end
#0
$dumpvars
b1110110 !
b1100100 "
0#
1$
1%
0&
1'
0.
1-
1,
1+
1*
1)
1(
02
01
00
0/
09
18
17
16
15
14
13
0=
0<
0;
0:
1D
1C
0B
1A
1@
0?
1>
0K
0J
0I
0H
0G
0F
0E
xL
0M
1N
xO
1P
1Q
1R
0S
1T
0U
0V
1W
0X
0Y
0Z
0[
0\
0]
0^
0_
0`
0a
0b
1c
0d
1e
0f
1g
0h
0i
0j
0k
0l
0m
0n
1o
1p
1q
0r
1s
0t
1u
0v
1w
0x
0y
0z
1{
0|
0}
0~
1!!
0"!
1#!
0$!
1%!
0&!
1'!
0(!
0)!
1*!
0+!
0,!
0-!
0.!
0/!
00!
11!
02!
03!
04!
05!
06!
17!
08!
19!
1:!
1;!
1<!
1=!
0>!
1?!
0@!
0A!
0B!
0C!
0D!
0E!
0F!
0G!
0H!
0I!
0J!
0K!
0L!
0M!
0N!
0O!
0P!
0Q!
0R!
1S!
0T!
1U!
0V!
1W!
0X!
0Y!
0Z!
0[!
0\!
0]!
0^!
0_!
0`!
0a!
0b!
0c!
0d!
0e!
0f!
0g!
0h!
1i!
0j!
1k!
0l!
0m!
0n!
0o!
0p!
0q!
1r!
1s!
0t!
0u!
0v!
0w!
0x!
0y!
0z!
0{!
0|!
0}!
0~!
1!"
0""
0#"
1$"
0%"
0&"
1'"
1("
1)"
0*"
0+"
0,"
0-"
0."
06"
05"
04"
03"
02"
01"
00"
0/"
0>"
0="
0<"
0;"
0:"
09"
08"
07"
0F"
0E"
0D"
0C"
0B"
0A"
0@"
0?"
0N"
0M"
0L"
0K"
0J"
0I"
0H"
0G"
0V"
0U"
1T"
0S"
0R"
1Q"
1P"
0O"
0^"
1]"
1\"
0["
1Z"
1Y"
1X"
0W"
$end
#10000
1#
1*"
1+"
0L
1B"
1D"
11"
1E"
14"
1A"
1@"
10"
1h
1f
1_!
1`!
0r!
0k!
1"!
1~
1|
1Z
1E!
1U
0s!
1#"
1""
0%!
1$!
0g
1s!
0W
0)"
0'"
1%"
0'!
1q!
1p!
1a!
1G!
1F!
0=!
1+!
1^
1\
1[
1X
1t!
1b!
1H!
1,!
1l!
0D
1?
1B
1u!
1c!
1I!
1-!
1m!
1v!
1d!
1J!
1.!
1n!
1w!
1e!
1K!
1o!
1f!
#20000
0#
0*"
0+"
1L
#30000
1#
1*"
1+"
0L
1H"
1I"
1J"
1L"
1M"
1i
0h
1}!
1|!
1{!
1R!
1M!
1@!
12!
1&!
0"!
0""
1%!
0$!
1;
1<
1=
10
11
1A!
0m!
0l!
13!
0[
0,!
0("
1'"
1&"
0$"
0p!
0a!
0F!
1=!
0^
0\
1Y
0X
1.
08
07
06
0)
0n!
14!
1,!
0-!
0q!
0b!
0G!
0Y
0C
0>
0B
0A
0o!
15!
1-!
0.!
16!
1.!
#40000
0#
0*"
0+"
1L
#50000
1#
1*"
1+"
0L
0I"
1K"
1N"
1j
0i
1~!
0}!
0{!
1y!
1O!
1N!
0%!
1}
0@!
02!
1"!
0<
1/
12
0w!
0v!
0f!
0e!
1]!
0K!
0J!
05!
0"!
0~
0t!
0c!
0H!
03!
0+!
19
18
16
04
0+
0*
1^!
0,!
0!!
0u!
0d!
0I!
04!
0-!
0.!
#60000
0#
0*"
0+"
1L
#70000
1#
1*"
1+"
0L
0H"
0J"
1G"
0L"
0M"
1k
0j
0|!
0y!
1P!
0N!
0M!
1,"
1(!
0#!
0#"
0&!
1%!
0}
0;
0=
1:
00
01
1+!
1p!
1F!
1]
1\
1)"
1("
0&"
0%"
1$"
0]!
0A!
06!
1"!
1!!
1~
17
14
0,
1*
1)
1,!
1q!
1G!
1^
1>!
0^!
1D
1C
0?
1>
1A
1-!
1t!
1H!
1l!
1@!
1.!
1u!
1I!
1m!
1A!
1v!
1J!
1n!
1w!
1K!
1o!
#80000
0#
0*"
0+"
1L
#90000
1#
1*"
1+"
0L
1H"
1I"
0G"
1L"
0N"
1M"
1l
0k
1y!
0P!
0O!
1N!
1M!
0!"
0%!
1$!
1z
1;
1<
0:
10
02
11
0)"
0("
1&"
1%"
0p!
1Y!
0F!
0=!
1[
0u!
0t!
1d!
0I!
0H!
0?!
0>!
04
1,
1+
0*
0)
0,!
0v!
1u!
1e!
0J!
1I!
0@!
0D
0C
1?
0A
0w!
1v!
1f!
0K!
1J!
0A!
1w!
1K!
#100000
0#
0*"
0+"
1L
#110000
1#
1*"
1+"
0L
1J"
0K"
1m
0l
0~!
1}!
1|!
1{!
0y!
0N!
1""
12!
1&!
0"!
0(!
1%!
0$!
1#!
1=
0/
1)"
1("
0'"
0&"
0%"
1t!
0m!
1c!
1[!
1H!
13!
0[
0q!
1Z!
0Y!
0G!
1=!
0]
0\
09
08
07
06
14
1*
0u!
0n!
0I!
1,!
0Z!
0^
1D
1C
0?
1B
1A
0v!
0o!
0J!
0w!
0K!
#120000
0#
0*"
0+"
1L
#130000
1#
1*"
1+"
0L
0H"
0I"
0L"
1n
0m
1x!
1Q!
1N!
0M!
0;!
0o
02!
1"!
0z
0;
0<
00
1v!
1o!
0e!
1^!
1J!
1A!
15!
0%!
0!!
0t!
1m!
0l!
0c!
1\!
0[!
0H!
03!
0+!
1u!
1I!
1?!
14!
03
0-
0*
1)
1w!
0f!
1K!
16!
0-!
0u!
0m!
0d!
0\!
0I!
04!
0,!
0.!
#140000
0#
0*"
0+"
1L
#150000
1#
1*"
1+"
0L
1H"
1I"
0J"
1G"
1L"
1K"
1N"
0M"
0n
1d
1~!
0}!
0|!
0{!
1z!
1y!
0x!
0N!
1L!
0,"
1!"
0&!
1}
0e
1;
1<
0=
1:
10
1/
12
01
1'"
1&"
1%"
0$"
0w!
1n!
1e!
1]!
0K!
0<!
0"!
1!!
0~
19
18
17
16
05
04
13
1*
0(
0^!
0A!
1-!
1?
0>
0B
0A
1.!
#160000
0#
0*"
0+"
1L
#169000
0'
0p
0q
0L
00"
0@"
0A"
04"
0E"
01"
0D"
0B"
0.!
0s!
0o!
0E!
1"!
1~
0|
0Z
1r!
1k!
06!
0_!
0`!
0U
1s!
1W
#170000
1#
1*"
1+"
1L
0H"
0I"
0G"
0L"
0K"
0N"
0f
0d
0~!
0z!
0y!
0R!
0Q!
0L!
1g
0""
1;!
0}
1o
1e
0;
0<
0:
00
0/
02
0&"
0%"
1$"
1<!
1w!
0v!
0n!
1f!
0e!
0]!
1K!
0J!
16!
05!
0-!
0"!
0~
1o!
1^!
1.!
1%!
09
0.
15
14
1-
1(
0w!
0o!
0f!
0^!
0K!
06!
0.!
1'!
0?
1>
1A
#180000
0#
0*"
0+"
0L
#190000
1#
1*"
1+"
1L
1h
1f
1#"
1""
0%!
1$!
0g
0)"
0'"
1%"
0'!
1p!
1a!
1F!
0=!
1+!
1\
1[
1X
0D
1?
1B
#200000
0#
0*"
0+"
0L
#210000
1#
1*"
1+"
1L
1i
0h
1@!
12!
1&!
0""
1%!
0$!
1A!
1t!
1m!
1c!
1\!
13!
0[
0("
1'"
1&"
0$"
1q!
0p!
1b!
0a!
1G!
0F!
1=!
0\
1Y
0X
1u!
1n!
1d!
1]!
14!
1,!
0q!
0b!
0G!
0Y
0C
0>
0B
0A
1v!
1o!
1e!
1^!
15!
1-!
1w!
1f!
16!
1.!
#220000
0#
0*"
0+"
0L
#230000
1#
1*"
1+"
1L
1H"
1I"
1J"
1G"
1K"
1N"
1M"
1j
0i
1~!
1{!
1z!
1y!
1R!
1M!
1L!
0%!
1}
0@!
02!
1;
1<
1=
1:
1/
12
11
0w!
0v!
0f!
0e!
1K!
06!
05!
1"!
0!!
1~
0t!
0m!
0c!
0\!
03!
0+!
19
1.
06
05
04
0)
0(
1w!
1f!
16!
0,!
0-!
1!!
0u!
0d!
04!
1-!
0.!
1.!
#240000
0#
0*"
0+"
0L
#250000
1#
1*"
1+"
1L
1L"
1k
0j
1O!
1N!
0L!
1,"
0#!
0#"
0&!
1%!
0}
10
1)"
1("
0&"
0%"
1$"
0w!
0n!
0f!
0]!
0K!
0A!
06!
0-!
0"!
0~
0+
0*
1(
0o!
0^!
0.!
1D
1C
0?
1>
1A
#260000
0#
0*"
0+"
0L
#270000
1#
1*"
1+"
1L
0H"
0I"
0J"
0G"
0L"
0K"
0N"
0M"
1l
0k
0~!
0{!
0z!
0y!
0R!
0O!
0N!
0M!
0!"
0%!
1$!
1z
0;
0<
0=
0:
00
0/
02
01
0)"
0("
1&"
1%"
1Y!
0=!
1+!
1]
1\
1[
0?!
1-!
0!!
09
0.
16
15
14
1+
1*
1)
1.!
0-!
0D
0C
1?
0A
0.!
#280000
0#
0*"
0+"
0L
#290000
1#
1*"
1+"
1L
1m
0l
1""
12!
1&!
1%!
0$!
1#!
1)"
1("
0'"
0&"
0%"
1t!
1m!
1l!
1c!
1\!
1[!
1H!
13!
0[
1Z!
0Y!
1=!
1^
0]
0\
1n!
0m!
1]!
0\!
1,!
0Z!
0^
1D
1C
0?
1B
1A
1o!
0n!
1^!
0]!
0o!
0^!
#300000
0#
0*"
0+"
0L
#310000
1#
1*"
1+"
1L
1n
0m
0;!
0o
02!
0z
1v!
1o!
1e!
1^!
1J!
1A!
15!
1.!
0%!
0t!
1m!
0l!
0c!
1\!
0[!
0H!
03!
0+!
1u!
1d!
1I!
1?!
14!
1w!
1f!
1K!
16!
0u!
0m!
0d!
0\!
0I!
04!
0,!
#320000
0#
0*"
0+"
0L
#330000
1#
1*"
1+"
1L
1H"
1I"
1J"
1G"
1L"
1K"
1N"
1M"
0n
1d
1~!
1{!
1z!
1y!
1R!
1O!
1N!
1M!
0,"
1!"
0&!
1}
0e
1;
1<
1=
1:
10
1/
12
11
1'"
1&"
1%"
0$"
0w!
1n!
0f!
1]!
0K!
0<!
06!
1"!
1!!
1~
19
1.
06
05
04
0+
0*
0)
0o!
0^!
0A!
1-!
1?
0>
0B
0A
0.!
